{
  "name": "c2c-tower",
  "version": "0.1.0",
  "author": "c2c",
  "summary": null,
  "license": "Apache-2.0",
  "source": "",
  "project_page": null,
  "issues_url": null,
  "dependencies": [
    {"name":"puppetlabs-stdlib","version_requirement":">= 1.0.0"}
  ],
  "data_provider": null
}

